Cfin
…
# Finalizing workflow
tuned_wkf <- finalize_workflow(tune_wkf, 
                               select_best(results, metric = "rmse"))

# Final predictions 
final_results <- last_fit(tuned_wkf, cfin_split)

augment(final_results)

## # A tibble: 4,451 × 12
##      lat   lon  year month abundance Bathy_depth sfc_temp sfc_salt btm_temp
##    <dbl> <dbl> <dbl> <fct>     <dbl>       <dbl>    <dbl>    <dbl>    <dbl>
##  1  40.6 -71.4  1977 8          5.41        64.6     19.8     32.4     9.18
##  2  40.2 -69.4  1977 8          5.29        86.5     20.7     33.0     9.06
##  3  40.8 -68.8  1977 8          4.96        68.6     12.9     32.7    11.7 
##  4  40.9 -68.6  1977 8          4.39        56.2     12.4     32.6    12.4 
##  5  41.1 -67.9  1977 8          4.70        49.1     13.2     32.6    13.1 
##  6  41.9 -68.7  1977 8          5.64       163.      18.8     31.9     5.02
##  7  41.8 -69.6  1977 8          5.79       165.      18.7     31.8     5.09
##  8  43.2 -69.8  1977 8          5.81       140.      17.6     31.5     5.12
##  9  43.6 -69.1  1977 8          6.42       141.      16.1     32.0     5.88
## 10  43.3 -68.8  1977 8          5.90       139.      15.9     32.3     6.44
## # … with 4,441 more rows, and 3 more variables: btm_salt <dbl>, .pred <dbl>,
## #   .resid <dbl>
…
