Tune
…
For this example, we’re going to model abundance of C. Finmarchicus, a small copepod that is abundant in the North Atlantic. This dataset is sourced from the Ecomon Survey and is also available to download on my GitHub.

Although some of these steps could be done within a recipe – eg. log scaling abundance and omitting null values – I’m deliberately choosing to do them outside of the recipe for better comprehension. In particular, omitting null values allows for augment() to work later on, and it’s best practice to transform outcome variables outside of a recipe.

# omitting null values, acquiring year and month information, and selecting desired rows
cfin <- readr::read_csv("ecomon_data.csv.gz", col_types = readr::cols()) |>
  na.omit() |>
  mutate(month = lubridate::month(date) |> as.factor(),
         year = lubridate::year(date),
         abundance = log10(calfin_10m2 + 1)) |>
  select(lat, lon, year, month, abundance, Bathy_depth, sfc_temp:btm_salt)

cfin

## # A tibble: 17,795 × 10
##      lat   lon  year month abundance Bathy_depth sfc_temp sfc_salt btm_temp btm_salt
##    <dbl> <dbl> <dbl> <fct>     <dbl>       <dbl>    <dbl>    <dbl>    <dbl>    <dbl>
##  1  40.6 -71.4  1977 8          5.41        64.6     19.8     32.4     9.18     33.7
##  2  40.2 -69.4  1977 8          5.29        86.5     20.7     33.0     9.06     33.9
##  3  40.2 -68.8  1977 8          5.62       170.      19.2     32.9    10.2      34.9
##  4  40.5 -68.6  1977 8          5.79        86.7     18.3     32.5     8.57     33.4
##  5  41.1 -69.4  1977 8          4.61        42.1      9.8     32.3     8.71     32.4
##  6  40.8 -68.8  1977 8          4.96        68.6     12.9     32.7    11.7      32.8
##  7  40.9 -68.6  1977 8          4.39        56.2     12.4     32.6    12.4      32.7
##  8  40.8 -68.3  1977 8          5.18        51.1     14.1     32.6    11.8      32.7
##  9  40.6 -68.3  1977 8          5.92        80.4     18.7     32.5     9.15     32.9
## 10  41.1 -67.9  1977 8          4.70        49.1     13.2     32.6    13.1      32.6
## # … with 17,785 more rows
…
Once parameter ranges are specified, the next step is to determine what combinations of values yield the best results. One method to do this is through grid search: we create pre-determined sets of parameter values, train the model with them, and select the best one.

Tune also supports iterative search, where the results from one set of parameter values are used to choose the next one. Iterative search is not covered here: for more information, check out check out Tidy Modeling with R and the Dials Reference.

Dials contains a four methods that turn provided parameter ranges into sets of testable values: grid_regular(), grid_random(), grid_max_entropy(), and grid_latin_hypercube().

# regularly span the available values 
regular_tune <- grid_regular(tune_params, levels = 4)
# latin hypercube attempts to fill the parameter space in a semi-random way
latin_hypercube_tune <- grid_latin_hypercube(tune_params, size = 6)

# note the resulting dataframe, which contains combinations of parameter values
regular_tune

## # A tibble: 64 × 3
##     mtry trees regfactor
##    <int> <dbl>     <dbl>
##  1     1   15          0
##  2     2   15          0
##  3     4   15          0
##  4     6   15          0
##  5     1  177.         0
##  6     2  177.         0
##  7     4  177.         0
##  8     6  177.         0
##  9     1  338.         0
## 10     2  338.         0
## # … with 54 more rows
…
